{
  "images" : [
    {
      "filename" : "stone_texture04.png",
      "idiom" : "universal"
    }
  ],
  "info" : {
    "author" : "xcode",
    "version" : 1
  },
  "properties" : {
    "unit" : "centimeters",
    "width" : 10
  }
}
